…
data[566, "EDAD"]

## # A tibble: 1 x 1
##    EDAD
##   <dbl>
## 1    90

Una forma más eficiente para, por ejemplo, ver la edad y el nº identificador de los casos que tienen más de 87 años:

data %>%
  filter(EDAD > 87) %>%
  dplyr::select(EDAD, identificador)

## # A tibble: 21 x 2
##     EDAD identificador
##    <dbl>         <int>
##  1    90           438
##  2    88           563
##  3    90           566
##  4    88           710
##  5    89          1119
##  6    90          1136
##  7    88          1317
##  8    94          1337
##  9    89          1412
## 10    90          1492
## # ... with 11 more rows
…
